Data reshaping with tidyr and functionals with purrr
…
---

## Getting started

```r
library(tidyverse)
```

```r
congress <- read_csv("http://www2.stat.duke.edu/~sms185/data/politics/congress.csv")
congress
```

```
#> # A tibble: 54 x 12
#>    year_start year_end total_senate dem_senate gop_senate other_senate
#>         <dbl>    <dbl>        <dbl>      <dbl>      <dbl>        <dbl>
#>  1       1913     1915           96         51         44            1
#>  2       1915     1917           96         56         39            1
#>  3       1917     1919           96         53         42            1
#>  4       1919     1921           96         47         48            1
#>  5       1921     1923           96         37         59           NA
#>  6       1923     1925           96         43         51            2
#>  7       1925     1927           96         40         54            1
#>  8       1927     1929           96         47         48            1
#>  9       1929     1931           96         39         56            1
#> 10       1931     1933           96         47         48            1
#> # … with 44 more rows, and 6 more variables: vacant_senate <dbl>,
#> #   total_house <dbl>, dem_house <dbl>, gop_house <dbl>, other_house <dbl>,
#> #   vacant_house <dbl>
```
…
