Data manipulation with dplyr
…
---

## Data

We will demonstrate `dplyr`'s functionality using the `nycflights13` package.

.small[

```r
flights
```

```
#> # A tibble: 336,776 x 19
#>     year month   day dep_time sched_dep_time dep_delay arr_time sched_arr_time
#>    <int> <int> <int>    <int>          <int>     <dbl>    <int>          <int>
#>  1  2013     1     1      517            515         2      830            819
#>  2  2013     1     1      533            529         4      850            830
#>  3  2013     1     1      542            540         2      923            850
#>  4  2013     1     1      544            545        -1     1004           1022
#>  5  2013     1     1      554            600        -6      812            837
#>  6  2013     1     1      554            558        -4      740            728
#>  7  2013     1     1      555            600        -5      913            854
#>  8  2013     1     1      557            600        -3      709            723
#>  9  2013     1     1      557            600        -3      838            846
#> 10  2013     1     1      558            600        -2      753            745
#> # … with 336,766 more rows, and 11 more variables: arr_delay <dbl>,
#> #   carrier <chr>, flight <int>, tailnum <chr>, origin <chr>, dest <chr>,
#> #   air_time <dbl>, distance <dbl>, hour <dbl>, minute <dbl>, time_hour <dttm>
```
]

---

## `filter()` - March flights

.small[

```r
flights %>% 
  filter(month == 3)
```

```
#> # A tibble: 28,834 x 19
#>     year month   day dep_time sched_dep_time dep_delay arr_time sched_arr_time
#>    <int> <int> <int>    <int>          <int>     <dbl>    <int>          <int>
#>  1  2013     3     1        4           2159       125      318             56
#>  2  2013     3     1       50           2358        52      526            438
#>  3  2013     3     1      117           2245       152      223           2354
#>  4  2013     3     1      454            500        -6      633            648
#>  5  2013     3     1      505            515       -10      746            810
#>  6  2013     3     1      521            530        -9      813            827
#>  7  2013     3     1      537            540        -3      856            850
#>  8  2013     3     1      541            545        -4     1014           1023
#>  9  2013     3     1      549            600       -11      639            703
#> 10  2013     3     1      550            600       -10      747            801
#> # … with 28,824 more rows, and 11 more variables: arr_delay <dbl>,
#> #   carrier <chr>, flight <int>, tailnum <chr>, origin <chr>, dest <chr>,
#> #   air_time <dbl>, distance <dbl>, hour <dbl>, minute <dbl>, time_hour <dttm>
```
]

---

## `filter()` - flights in the first 7 days of March

.small[

```r
flights %>% 
  filter(month == 3, day <= 7)
```

```
#> # A tibble: 6,530 x 19
#>     year month   day dep_time sched_dep_time dep_delay arr_time sched_arr_time
#>    <int> <int> <int>    <int>          <int>     <dbl>    <int>          <int>
#>  1  2013     3     1        4           2159       125      318             56
#>  2  2013     3     1       50           2358        52      526            438
#>  3  2013     3     1      117           2245       152      223           2354
#>  4  2013     3     1      454            500        -6      633            648
#>  5  2013     3     1      505            515       -10      746            810
#>  6  2013     3     1      521            530        -9      813            827
#>  7  2013     3     1      537            540        -3      856            850
#>  8  2013     3     1      541            545        -4     1014           1023
#>  9  2013     3     1      549            600       -11      639            703
#> 10  2013     3     1      550            600       -10      747            801
#> # … with 6,520 more rows, and 11 more variables: arr_delay <dbl>,
#> #   carrier <chr>, flight <int>, tailnum <chr>, origin <chr>, dest <chr>,
#> #   air_time <dbl>, distance <dbl>, hour <dbl>, minute <dbl>, time_hour <dttm>
```
]

---

## `filter()` - flights to LAX *or* RDU in March

.small[

```r
flights %>%
  filter(dest == "LAX" | dest == "RDU", month == 3)
```

```
#> # A tibble: 1,935 x 19
#>     year month   day dep_time sched_dep_time dep_delay arr_time sched_arr_time
#>    <int> <int> <int>    <int>          <int>     <dbl>    <int>          <int>
#>  1  2013     3     1      607            610        -3      832            925
#>  2  2013     3     1      608            615        -7      737            750
#>  3  2013     3     1      623            630        -7      753            810
#>  4  2013     3     1      629            632        -3      844            952
#>  5  2013     3     1      657            700        -3      953           1034
#>  6  2013     3     1      714            715        -1      939           1037
#>  7  2013     3     1      716            710         6      958           1035
#>  8  2013     3     1      727            730        -3     1007           1100
#>  9  2013     3     1      803            810        -7      923            955
#> 10  2013     3     1      823            824        -1      954           1014
#> # … with 1,925 more rows, and 11 more variables: arr_delay <dbl>,
#> #   carrier <chr>, flight <int>, tailnum <chr>, origin <chr>, dest <chr>,
#> #   air_time <dbl>, distance <dbl>, hour <dbl>, minute <dbl>, time_hour <dttm>
```
…
---

## `select()` - specific variables

```r
flights %>% 
  select(year, month, day)
```

```
#> # A tibble: 336,776 x 3
#>     year month   day
#>    <int> <int> <int>
#>  1  2013     1     1
#>  2  2013     1     1
#>  3  2013     1     1
#>  4  2013     1     1
#>  5  2013     1     1
#>  6  2013     1     1
#>  7  2013     1     1
#>  8  2013     1     1
#>  9  2013     1     1
#> 10  2013     1     1
#> # … with 336,766 more rows
```

---

## `select()` - exclude variables

.small[

```r
flights %>% 
  select(-year, -month, -day)
```

```
#> # A tibble: 336,776 x 16
#>    dep_time sched_dep_time dep_delay arr_time sched_arr_time arr_delay carrier
#>       <int>          <int>     <dbl>    <int>          <int>     <dbl> <chr>  
#>  1      517            515         2      830            819        11 UA     
#>  2      533            529         4      850            830        20 UA     
#>  3      542            540         2      923            850        33 AA     
#>  4      544            545        -1     1004           1022       -18 B6     
#>  5      554            600        -6      812            837       -25 DL     
#>  6      554            558        -4      740            728        12 UA     
#>  7      555            600        -5      913            854        19 B6     
#>  8      557            600        -3      709            723       -14 EV     
#>  9      557            600        -3      838            846        -8 B6     
#> 10      558            600        -2      753            745         8 AA     
#> # … with 336,766 more rows, and 9 more variables: flight <int>, tailnum <chr>,
#> #   origin <chr>, dest <chr>, air_time <dbl>, distance <dbl>, hour <dbl>,
#> #   minute <dbl>, time_hour <dttm>
```
]

---

## `select()` - ranges

```r
flights %>% 
  select(year:day)
```

```
#> # A tibble: 336,776 x 3
#>     year month   day
#>    <int> <int> <int>
#>  1  2013     1     1
#>  2  2013     1     1
#>  3  2013     1     1
#>  4  2013     1     1
#>  5  2013     1     1
#>  6  2013     1     1
#>  7  2013     1     1
#>  8  2013     1     1
#>  9  2013     1     1
#> 10  2013     1     1
#> # … with 336,766 more rows
```

---

## `select()` - exclude ranges

.small[

```r
flights %>% 
  select(-(year:day))
```

```
#> # A tibble: 336,776 x 16
#>    dep_time sched_dep_time dep_delay arr_time sched_arr_time arr_delay carrier
#>       <int>          <int>     <dbl>    <int>          <int>     <dbl> <chr>  
#>  1      517            515         2      830            819        11 UA     
#>  2      533            529         4      850            830        20 UA     
#>  3      542            540         2      923            850        33 AA     
#>  4      544            545        -1     1004           1022       -18 B6     
#>  5      554            600        -6      812            837       -25 DL     
#>  6      554            558        -4      740            728        12 UA     
#>  7      555            600        -5      913            854        19 B6     
#>  8      557            600        -3      709            723       -14 EV     
#>  9      557            600        -3      838            846        -8 B6     
#> 10      558            600        -2      753            745         8 AA     
#> # … with 336,766 more rows, and 9 more variables: flight <int>, tailnum <chr>,
#> #   origin <chr>, dest <chr>, air_time <dbl>, distance <dbl>, hour <dbl>,
#> #   minute <dbl>, time_hour <dttm>
```
]

---

## `select()` - matching

.small[

```r
flights %>% 
  select(contains("dep"), contains("arr"))
```

```
#> # A tibble: 336,776 x 7
#>    dep_time sched_dep_time dep_delay arr_time sched_arr_time arr_delay carrier
#>       <int>          <int>     <dbl>    <int>          <int>     <dbl> <chr>  
#>  1      517            515         2      830            819        11 UA     
#>  2      533            529         4      850            830        20 UA     
#>  3      542            540         2      923            850        33 AA     
#>  4      544            545        -1     1004           1022       -18 B6     
#>  5      554            600        -6      812            837       -25 DL     
#>  6      554            558        -4      740            728        12 UA     
#>  7      555            600        -5      913            854        19 B6     
#>  8      557            600        -3      709            723       -14 EV     
#>  9      557            600        -3      838            846        -8 B6     
#> 10      558            600        -2      753            745         8 AA     
#> # … with 336,766 more rows
```
]

---

```r
flights %>% 
  select(starts_with("dep"), starts_with("arr"))
```

```
#> # A tibble: 336,776 x 4
#>    dep_time dep_delay arr_time arr_delay
#>       <int>     <dbl>    <int>     <dbl>
#>  1      517         2      830        11
#>  2      533         4      850        20
#>  3      542         2      923        33
#>  4      544        -1     1004       -18
#>  5      554        -6      812       -25
#>  6      554        -4      740        12
#>  7      555        -5      913        19
#>  8      557        -3      709       -14
#>  9      557        -3      838        -8
#> 10      558        -2      753         8
#> # … with 336,766 more rows
```

Other helpers: `ends_with()`, `matches()`, `num_range()`, `one_of()`, 
`everything()`, `last_col()`

---

## `select_if()` 

```r
flights %>% 
  select_if(function(x) !is.numeric(x))
```

```
#> # A tibble: 336,776 x 5
#>    carrier tailnum origin dest  time_hour          
#>    <chr>   <chr>   <chr>  <chr> <dttm>             
#>  1 UA      N14228  EWR    IAH   2013-01-01 05:00:00
#>  2 UA      N24211  LGA    IAH   2013-01-01 05:00:00
#>  3 AA      N619AA  JFK    MIA   2013-01-01 05:00:00
#>  4 B6      N804JB  JFK    BQN   2013-01-01 05:00:00
#>  5 DL      N668DN  LGA    ATL   2013-01-01 06:00:00
#>  6 UA      N39463  EWR    ORD   2013-01-01 05:00:00
#>  7 B6      N516JB  EWR    FLL   2013-01-01 06:00:00
#>  8 EV      N829AS  LGA    IAD   2013-01-01 06:00:00
#>  9 B6      N593JB  JFK    MCO   2013-01-01 06:00:00
#> 10 AA      N3ALAA  LGA    ORD   2013-01-01 06:00:00
#> # … with 336,766 more rows
```
…
---

## `arrange()` - sort data

.small[

```r
flights %>%
  filter(month == 3, day == 2) %>%
  arrange(origin, dest)
```

```
#> # A tibble: 765 x 19
#>     year month   day dep_time sched_dep_time dep_delay arr_time sched_arr_time
#>    <int> <int> <int>    <int>          <int>     <dbl>    <int>          <int>
#>  1  2013     3     2     1336           1329         7     1426           1432
#>  2  2013     3     2      628            629        -1      837            849
#>  3  2013     3     2      637            640        -3      903            915
#>  4  2013     3     2      743            745        -2      945           1010
#>  5  2013     3     2      857            900        -3     1117           1126
#>  6  2013     3     2     1027           1030        -3     1234           1247
#>  7  2013     3     2     1134           1145       -11     1332           1359
#>  8  2013     3     2     1412           1415        -3     1636           1630
#>  9  2013     3     2     1633           1636        -3     1848           1908
#> 10  2013     3     2     1655           1700        -5     1857           1924
#> # … with 755 more rows, and 11 more variables: arr_delay <dbl>, carrier <chr>,
#> #   flight <int>, tailnum <chr>, origin <chr>, dest <chr>, air_time <dbl>,
#> #   distance <dbl>, hour <dbl>, minute <dbl>, time_hour <dttm>
```
…
---

## `arrange()` & `desc()`

By default, sorting is done in ascending order. To change that, use `desc()`.

```r
flights %>% 
  filter(month == 3, day == 2) %>% 
  arrange(desc(origin), dest) %>% 
  select(origin, dest, tailnum)
```

```
#> # A tibble: 765 x 3
#>    origin dest  tailnum
#>    <chr>  <chr> <chr>  
#>  1 LGA    ATL   N928AT 
#>  2 LGA    ATL   N623DL 
#>  3 LGA    ATL   N680DA 
#>  4 LGA    ATL   N996AT 
#>  5 LGA    ATL   N510MQ 
#>  6 LGA    ATL   N663DN 
#>  7 LGA    ATL   N942DL 
#>  8 LGA    ATL   N511MQ 
#>  9 LGA    ATL   N910DE 
#> 10 LGA    ATL   N902DE 
#> # … with 755 more rows
```

---

## `mutate()` - modify columns

```r
flights %>%
  select(year:day) %>%
  mutate(date = paste(year, month, day, sep = "/"))
```

```
#> # A tibble: 336,776 x 4
#>     year month   day date    
#>    <int> <int> <int> <chr>   
#>  1  2013     1     1 2013/1/1
#>  2  2013     1     1 2013/1/1
#>  3  2013     1     1 2013/1/1
#>  4  2013     1     1 2013/1/1
#>  5  2013     1     1 2013/1/1
#>  6  2013     1     1 2013/1/1
#>  7  2013     1     1 2013/1/1
#>  8  2013     1     1 2013/1/1
#>  9  2013     1     1 2013/1/1
#> 10  2013     1     1 2013/1/1
#> # … with 336,766 more rows
```

---

## `transmute()` - create tibble from existing columns

```r
flights %>%
  transmute(date = paste(year, month, day, sep = "/"))
```

```
#> # A tibble: 336,776 x 1
#>    date    
#>    <chr>   
#>  1 2013/1/1
#>  2 2013/1/1
#>  3 2013/1/1
#>  4 2013/1/1
#>  5 2013/1/1
#>  6 2013/1/1
#>  7 2013/1/1
#>  8 2013/1/1
#>  9 2013/1/1
#> 10 2013/1/1
#> # … with 336,766 more rows
```

---

## `distinct()` - find unique rows

```r
flights %>%
  select(origin, dest) %>%
  distinct() %>%
  arrange(origin, dest)
```

```
#> # A tibble: 224 x 2
#>    origin dest 
#>    <chr>  <chr>
#>  1 EWR    ALB  
#>  2 EWR    ANC  
#>  3 EWR    ATL  
#>  4 EWR    AUS  
#>  5 EWR    AVL  
#>  6 EWR    BDL  
#>  7 EWR    BNA  
#>  8 EWR    BOS  
#>  9 EWR    BQN  
#> 10 EWR    BTV  
#> # … with 214 more rows
```
…
```r
wake %>% 
  filter(city_decode == "APEX", calc_area > 1) %>% 
  select(year_built, total_value_assd) %>% 
  arrange(year_built)
```

```
#> # A tibble: 1,274 x 2
#>    year_built total_value_assd
#>         <dbl>            <dbl>
#>  1          0          5250581
#>  2       1870           275017
#>  3       1890           636565
#>  4       1890          1136357
#>  5       1900          4310465
#>  6       1910         10272692
#>  7       1910          5244587
#>  8       1910           483127
#>  9       1920          1736577
#> 10       1920           703483
#> # … with 1,264 more rows
```
…
- Count: `n()`, `n_distinct()`
 
- Logical: `any()`, `all()`

---

## `group_by()`

```r
flights %>% 
  group_by(origin)
```

```r
# A tibble: 336,776 x 19
*# Groups:   origin [3]
    year month   day dep_time sched_dep_time dep_delay arr_time
   <int> <int> <int>    <int>          <int>     <dbl>    <int>
 1  2013     1     1      517            515         2      830
 2  2013     1     1      533            529         4      850
 3  2013     1     1      542            540         2      923
 4  2013     1     1      544            545        -1     1004
 5  2013     1     1      554            600        -6      812
 6  2013     1     1      554            558        -4      740
 7  2013     1     1      555            600        -5      913
 8  2013     1     1      557            600        -3      709
 9  2013     1     1      557            600        -3      838
10  2013     1     1      558            600        -2      753
# … with 336,766 more rows, and 12 more variables:
#   sched_arr_time <int>, arr_delay <dbl>, carrier <chr>,
#   flight <int>, tailnum <chr>, origin <chr>, dest <chr>,
#   air_time <dbl>, distance <dbl>, hour <dbl>, minute <dbl>,
#   time_hour <dttm>
```
…
---

## `mutate()` with `group_by()`

```r
flights %>% 
  group_by(origin) %>%
  mutate(n = n()) %>%
  select(origin, n)
```

```
#> # A tibble: 336,776 x 2
#> # Groups:   origin [3]
#>    origin      n
#>    <chr>   <int>
#>  1 EWR    120835
#>  2 LGA    104662
#>  3 JFK    111279
#>  4 JFK    111279
#>  5 LGA    104662
#>  6 EWR    120835
#>  7 EWR    120835
#>  8 LGA    104662
#>  9 JFK    111279
#> 10 LGA    104662
#> # … with 336,766 more rows
```
…
.small[

```r
wake %>% 
  mutate(lot_size = case_when(
    deed_acres < .5   ~ "small",
    deed_acres < 1.5  ~ "medium",
    deed_acres >= 1.5 ~ "large"
  )) %>% 
  select(deed_acres, lot_size)
```

```
#> # A tibble: 378,020 x 2
#>    deed_acres lot_size
#>         <dbl> <chr>   
#>  1       0.6  medium  
#>  2       0.07 small   
#>  3       0.18 small   
#>  4       0.25 small   
#>  5       0.26 small   
#>  6       0.16 small   
#>  7       1.15 medium  
#>  8       1.01 medium  
#>  9       3.61 large   
#> 10       1    medium  
#> # … with 378,010 more rows
```
…
```r
wake %>% 
  filter(!is.na(sale_date)) %>% 
  mutate(year = lubridate::year(sale_date)) %>% 
  group_by(year) %>% 
  summarise(median_sale_price = median(totsalprice, na.rm = TRUE))
```

```
#> # A tibble: 62 x 2
#>     year median_sale_price
#>    <dbl>             <dbl>
#>  1  1956               500
#>  2  1958              8500
#>  3  1961              1100
#>  4  1962              5500
#>  5  1963             15900
#>  6  1964              6000
#>  7  1965             47300
#>  8  1966              6400
#>  9  1967              8800
#> 10  1968             17000
#> # … with 52 more rows
```
…
