Web scraping part II
…
---

## Recall previous exercise

Go to http://books.toscrape.com/catalogue/page-1.html and scrape the first 
five pages of data on books with regards to their

1. title
2. price
3. star rating

Organize your results in a neatly formatted tibble similar to below.

```r
# A tibble: 100 x 3
   title                                             price rating
   <chr>                                             <chr> <chr> 
 1 A Light in the Attic                              £51.… Three 
 2 Tipping the Velvet                                £53.… One   
 3 Soumission                                        £50.… One   
 4 Sharp Objects                                     £47.… Four  
 5 Sapiens: A Brief History of Humankind             £54.… Five  
 6 The Requiem Red                                   £22.… One   
 7 The Dirty Little Secrets of Getting Your Dream J… £33.… Four  
 8 The Coming Woman: A Novel Based on the Life of t… £17.… Three 
 9 The Boys in the Boat: Nine Americans and Their E… £22.… Four  
10 The Black Maria                                   £52.… One   
# … with 90 more rows
```
…
