Advanced Visualizations
…
<br><br><br><br>

**Code not shown for plots is available in the presentation notes. Press `P`.**

---

## Data: Flint water crisis

```r
flint <- read_csv("http://www2.stat.duke.edu/~sms185/data/health/flint.csv")
flint
```

```
#> # A tibble: 271 x 6
#>       id   zip  ward  draw1  draw2 draw3
#>    <dbl> <dbl> <dbl>  <dbl>  <dbl> <dbl>
#>  1     1 48504     6  0.344  0.226 0.145
#>  2     2 48507     9  8.13  10.8   2.76 
#>  3     4 48504     1  1.11   0.11  0.123
#>  4     5 48507     8  8.01   7.45  3.38 
#>  5     6 48505     3  1.95   0.048 0.035
#>  6     7 48507     9  7.2    1.4   0.2  
#>  7     8 48507     9 40.6    9.73  6.13 
#>  8     9 48503     5  1.1    2.5   0.1  
#>  9    12 48507     9 10.6    1.04  1.29 
#> 10    13 48505     3  6.2    4.2   2.3  
#> # … with 261 more rows
```
…
class: inverse, center, middle

# Parliament plots: `ggpol`

---

## Data: Congressional seats

```r
congress <- read_csv("http://www2.stat.duke.edu/~sms185/data/politics/congress_long.csv")
congress
```

```
#> # A tibble: 432 x 5
#>    year_start year_end party  branch seats
#>         <dbl>    <dbl> <chr>  <chr>  <dbl>
#>  1       1913     1915 dem    house    290
#>  2       1913     1915 dem    senate    51
#>  3       1913     1915 gop    house    127
#>  4       1913     1915 gop    senate    44
#>  5       1913     1915 other  house     18
#>  6       1913     1915 other  senate     1
#>  7       1913     1915 vacant house     NA
#>  8       1913     1915 vacant senate    NA
#>  9       1915     1917 dem    house    231
#> 10       1915     1917 dem    senate    56
#> # … with 422 more rows
```
…
# Animation: `gganimate()`

---

## Data: `gapminder`

```r
library(gapminder) 
gapminder
```

```
#> # A tibble: 1,704 x 6
#>    country     continent  year lifeExp      pop gdpPercap
#>    <fct>       <fct>     <int>   <dbl>    <int>     <dbl>
#>  1 Afghanistan Asia       1952    28.8  8425333      779.
#>  2 Afghanistan Asia       1957    30.3  9240934      821.
#>  3 Afghanistan Asia       1962    32.0 10267083      853.
#>  4 Afghanistan Asia       1967    34.0 11537966      836.
#>  5 Afghanistan Asia       1972    36.1 13079460      740.
#>  6 Afghanistan Asia       1977    38.4 14880372      786.
#>  7 Afghanistan Asia       1982    39.9 12881816      978.
#>  8 Afghanistan Asia       1987    40.8 13867957      852.
#>  9 Afghanistan Asia       1992    41.7 16317921      649.
#> 10 Afghanistan Asia       1997    41.8 22227415      635.
#> # … with 1,694 more rows
```
…
class: inverse, center, middle

# Interactive plots: `ggiraph`

---

## Data: NC births and SID

```r
nc <- read_csv("http://www2.stat.duke.edu/~sms185/data/health/nc_birth_sid.csv")
nc
```

```
#> # A tibble: 100 x 4
#>    NAME         AREA BIR74 SID74
#>    <chr>       <dbl> <dbl> <dbl>
#>  1 Ashe        0.114  1091     1
#>  2 Alleghany   0.061   487     0
#>  3 Surry       0.143  3188     5
#>  4 Currituck   0.07    508     1
#>  5 Northampton 0.153  1421     9
#>  6 Hertford    0.097  1452     7
#>  7 Camden      0.062   286     0
#>  8 Gates       0.091   420     0
#>  9 Warren      0.118   968     4
#> 10 Stokes      0.124  1612     1
#> # … with 90 more rows
```
…
---

## Flint water data

Create a visualization of the data from object `flint`. Incorporate topics
from today's lecture.

```r
flint <- read_csv("http://www2.stat.duke.edu/~sms185/data/health/flint.csv")
flint
```

```
#> # A tibble: 271 x 6
#>       id   zip  ward  draw1  draw2 draw3
#>    <dbl> <dbl> <dbl>  <dbl>  <dbl> <dbl>
#>  1     1 48504     6  0.344  0.226 0.145
#>  2     2 48507     9  8.13  10.8   2.76 
#>  3     4 48504     1  1.11   0.11  0.123
#>  4     5 48507     8  8.01   7.45  3.38 
#>  5     6 48505     3  1.95   0.048 0.035
#>  6     7 48507     9  7.2    1.4   0.2  
#>  7     8 48507     9 40.6    9.73  6.13 
#>  8     9 48503     5  1.1    2.5   0.1  
#>  9    12 48507     9 10.6    1.04  1.29 
#> 10    13 48505     3  6.2    4.2   2.3  
#> # … with 261 more rows
```
…
