…
---

```{r eval=FALSE}
taxi_tbl_summary
```

```{r eval=FALSE}
# A tibble: 168 x 6
   pickup_hour pickup_day avg_dist avg_fare avg_tip_pct avg_fare_per_mile
         <int> <chr>         <dbl>    <dbl>       <dbl>             <dbl>
 1           1 Thu            3.08    10.5       0.0448              5.33
 2           7 Sun            3.68    11.6       0.0401              5.32
 3           8 Sat            2.82     9.37      0.0377              5.00
 4           6 Tue            2.85     9.33      0.0375              5.29
 5          11 Fri            2.33     9.23      0.0400              6.25
 6           0 Wed            3.16    10.4       0.0530              5.38
 7           6 Mon            3.12     9.95      0.0377              5.16
 8          17 Mon            2.41     9.36      0.0440              5.91
 9          16 Thu            2.34     9.85      0.0408             13.0 
10          10 Wed            2.13     8.98      0.0457              6.49
# … with 158 more rows
```
…
