Statistical graphics with ggplot2
…
Object `teams` is a data frame that contains yearly statistics and standings
for MLB teams from 2009 to 2018.

The data has 300 rows and 56 variables.

---

.tiny[

```r
teams
```

```
#> # A tibble: 300 x 56
#>    yearID lgID  teamID franchID divID  Rank     G Ghome     W     L DivWin WCWin
#>     <dbl> <chr> <chr>  <chr>    <chr> <dbl> <dbl> <dbl> <dbl> <dbl> <chr>  <chr>
#>  1   2009 NL    ARI    ARI      W         5   162    81    70    92 N      N    
#>  2   2009 NL    ATL    ATL      E         3   162    81    86    76 N      N    
#>  3   2009 AL    BAL    BAL      E         5   162    81    64    98 N      N    
#>  4   2009 AL    BOS    BOS      E         2   162    81    95    67 N      Y    
#>  5   2009 AL    CHA    CHW      C         3   162    81    79    83 N      N    
#>  6   2009 NL    CHN    CHC      C         2   161    80    83    78 N      N    
#>  7   2009 NL    CIN    CIN      C         4   162    81    78    84 N      N    
#>  8   2009 AL    CLE    CLE      C         4   162    81    65    97 N      N    
#>  9   2009 NL    COL    COL      W         2   162    81    92    70 N      Y    
#> 10   2009 AL    DET    DET      C         2   163    81    86    77 N      N    
#> # … with 290 more rows, and 44 more variables: LgWin <chr>, WSWin <chr>,
#> #   R <dbl>, AB <dbl>, H <dbl>, X2B <dbl>, X3B <dbl>, HR <dbl>, BB <dbl>,
#> #   SO <dbl>, SB <dbl>, CS <dbl>, HBP <dbl>, SF <dbl>, RA <dbl>, ER <dbl>,
#> #   ERA <dbl>, CG <dbl>, SHO <dbl>, SV <dbl>, IPouts <dbl>, HA <dbl>,
#> #   HRA <dbl>, BBA <dbl>, SOA <dbl>, E <dbl>, DP <dbl>, FP <dbl>, name <chr>,
#> #   park <chr>, attendance <dbl>, BPF <dbl>, PPF <dbl>, teamIDBR <chr>,
#> #   teamIDlahman45 <chr>, teamIDretro <chr>, TB <dbl>, WinPct <dbl>, rpg <dbl>,
#> #   hrpg <dbl>, tbpg <dbl>, kpg <dbl>, k2bb <dbl>, whip <dbl>
```
…
.tiny[

```r
energy <- read_csv("http://www2.stat.duke.edu/~sms185/data/energy/energy.csv")
```
]

.tiny[

```r
energy
```

```
#> # A tibble: 105 x 6
#>    MWhperDay name            type  location    note                          boe
#>        <dbl> <chr>           <chr> <chr>       <chr>                       <dbl>
#>  1         3 Chernobyl Solar Solar Ukraine     "On the site of the former…     0
#>  2       637 Solarpark Meuro Solar Germany      <NA>                          55
#>  3       920 Tesla's propos… Solar South Aust… "50,000 homes with solar p…    79
#>  4      1280 Quaid-e-Azam    Solar Pakistan    "Named in honor of Quaid-e…   110
#>  5      1760 Topaz           Solar USA          <NA>                         152
#>  6      2025 Agua Caliente   Solar USA         "Arizona"                     175
#>  7      2466 Kamuthi         Solar India       "\"150,000\" homes"           213
#>  8      2720 Longyangxia     Solar China        <NA>                         234
#>  9      3840 Kurnool         Solar India        <NA>                         331
#> 10      4950 Tengger Desert  Solar China       "Covers 3.2% of the land a…   427
#> # … with 95 more rows
```
…
