Spatial data with sf
…
class: inverse, center, middle

# Introduction

---

## Spatial data is different

Our **typical tidy data frame**:

.tiny[

```
#> # A tibble: 336,776 x 19
#>     year month   day dep_time sched_dep_time dep_delay arr_time sched_arr_time
#>    <int> <int> <int>    <int>          <int>     <dbl>    <int>          <int>
#>  1  2013     1     1      517            515         2      830            819
#>  2  2013     1     1      533            529         4      850            830
#>  3  2013     1     1      542            540         2      923            850
#>  4  2013     1     1      544            545        -1     1004           1022
#>  5  2013     1     1      554            600        -6      812            837
#>  6  2013     1     1      554            558        -4      740            728
#>  7  2013     1     1      555            600        -5      913            854
#>  8  2013     1     1      557            600        -3      709            723
#>  9  2013     1     1      557            600        -3      838            846
#> 10  2013     1     1      558            600        -2      753            745
#> # … with 336,766 more rows, and 11 more variables: arr_delay <dbl>,
#> #   carrier <chr>, flight <int>, tailnum <chr>, origin <chr>, dest <chr>,
#> #   air_time <dbl>, distance <dbl>, hour <dbl>, minute <dbl>, time_hour <dttm>
```
…
---

Another simple features object:

.tiny[

```
#> Simple feature collection with 94 features and 1 field
#> geometry type:  MULTIPOLYGON
#> dimension:      XY
#> bbox:           xmin: 127456.7 ymin: 26544.91 xmax: 923528.7 ymax: 318097.4
#> projected CRS:  NAD83 / North Carolina
#> # A tibble: 94 x 2
#>    GML_HAB                                                              geometry
#>    <chr>                                                      <MULTIPOLYGON [m]>
#>  1 Alcoa               (((512096.2 183241.7, 512185.7 183203.4, 512226 183186.2…
#>  2 Alligator River     (((869633.1 244541.9, 869739.4 243987.6, 869762.7 243999…
#>  3 Angola Bay          (((713079.4 113954.7, 713110.9 113878.7, 713133.1 113925…
#>  4 Bachelor Bay        (((813742.2 238618.7, 813730 238603.2, 813693.8 238525.7…
#>  5 Bertie County       (((797133.8 247034.5, 797119.5 247030, 797112.2 247027.7…
#>  6 Bladen Lakes State… (((658970.6 95406.32, 660025.1 94245.76, 659839.4 94144.…
#>  7 Brinkleyville       (((714741 276970.3, 714623.9 276970, 714622.1 277000, 71…
#>  8 Buckhorn            (((589723.7 253224.6, 589568.5 252937.2, 589689.8 252937…
#>  9 Buckridge           (((871137.4 219894.9, 871124.9 219827.8, 871124.2 219828…
#> 10 Buffalo Cove        (((381445.9 260375.4, 381574.9 259668.3, 381915 259796.3…
#> # … with 84 more rows
```
…
