…
.tiny[
```{r eval=FALSE}
base_url <- "https://s3.amazonaws.com/nyc-tlc/trip+data/yellow_tripdata_2019-"
month_ext <- str_pad(1:12, width = 2, pad = "0")
urls <- str_c(base_url, month_ext, ".csv", sep = "")

taxi_2019 <- map_df(urls, vroom)
```
]

*Caution:* this full dataset is a dataframe of 84,399,019 x 18.

.tiny[
```{r eval=FALSE}
# A tibble: 84,399,019 x 18
   VendorID tpep_pickup_dat… tpep_dropoff_da… passenger_count trip_distance RatecodeID
      <int> <chr>            <chr>                      <int>         <dbl>      <int>
 1        1 2019-01-01 00:4… 2019-01-01 00:5…               1           1.5          1
 2        1 2019-01-01 00:5… 2019-01-01 01:1…               1           2.6          1
 3        2 2018-12-21 13:4… 2018-12-21 13:5…               3           0            1
 4        2 2018-11-28 15:5… 2018-11-28 15:5…               5           0            1
 5        2 2018-11-28 15:5… 2018-11-28 15:5…               5           0            2
 6        2 2018-11-28 16:2… 2018-11-28 16:2…               5           0            1
 7        2 2018-11-28 16:2… 2018-11-28 16:3…               5           0            2
 8        1 2019-01-01 00:2… 2019-01-01 00:2…               1           1.3          1
 9        1 2019-01-01 00:3… 2019-01-01 00:4…               1           3.7          1
10        1 2019-01-01 00:5… 2019-01-01 01:0…               2           2.1          1
# … with 84,399,009 more rows, and 12 more variables: store_and_fwd_flag <chr>,
#   PULocationID <int>, DOLocationID <int>, payment_type <int>, fare_amount <dbl>, extra <dbl>,
#   mta_tax <dbl>, tip_amount <dbl>, tolls_amount <dbl>, improvement_surcharge <dbl>,
#   total_amount <dbl>, congestion_surcharge <dbl>
```
…
